Computer_Organization/Lab5/CPUtest.vcd
$date
	Fri Nov 14 14:02:18 2025
$end
$version
	Icarus Verilog
$end
$timescale
	1ps
$end
$scope module cpu_tb $end
$var reg 1 ! clock $end
$var reg 1 " reset $end
$var integer 32 # i [31:0] $end
$scope module cpu0 $end
$var wire 1 ! clock $end
$var wire 1 " reset $end
$var wire 1 $ zero $end
$var wire 32 % rdB [31:0] $end
$var wire 32 & WriteData [31:0] $end
$var wire 5 ' WriteAddress [4:0] $end
$var wire 1 ( RegWrite $end
$var wire 1 ) RegDst $end
$var wire 32 * NewPC [31:0] $end
$var wire 1 + NeqBranch $end
$var wire 1 , MemWrite $end
$var wire 1 - MemToReg $end
$var wire 1 . MemRead $end
$var wire 32 / MemData [31:0] $end
$var wire 32 0 Instruction [31:0] $end
$var wire 32 1 ExtOffset [31:0] $end
$var wire 1 2 EqBranch $end
$var wire 32 3 AluInB [31:0] $end
$var wire 32 4 AluInA [31:0] $end
$var wire 32 5 ALUout [31:0] $end
$var wire 2 6 ALUcntrl [1:0] $end
$var wire 1 7 ALUSrc $end
$var wire 4 8 ALUOp [3:0] $end
$var reg 32 9 PC [31:0] $end
$scope module ALU $end
$var wire 32 : inB [31:0] $end
$var wire 1 $ zero $end
$var wire 4 ; op [3:0] $end
$var wire 32 < inA [31:0] $end
$var reg 32 = out [31:0] $end
$upscope $end
$scope module ALU_CONTROL $end
$var wire 6 > func [5:0] $end
$var wire 2 ? ALUcntrl [1:0] $end
$var reg 4 @ ALUOp [3:0] $end
$upscope $end
$scope module CONTROL $end
$var wire 6 A opcode [5:0] $end
$var reg 1 7 ALUSrc $end
$var reg 2 B ALUcntrl [1:0] $end
$var reg 1 C Branch $end
$var reg 1 2 EqBranch $end
$var reg 1 . MemRead $end
$var reg 1 - MemToReg $end
$var reg 1 , MemWrite $end
$var reg 1 + NeqBranch $end
$var reg 1 ) RegDst $end
$var reg 1 ( RegWrite $end
$upscope $end
$scope module DATA_MEMORY $end
$var wire 32 D addr [31:0] $end
$var wire 1 ! clock $end
$var wire 1 . ren $end
$var wire 1 " reset $end
$var wire 1 , wen $end
$var wire 32 E dout [31:0] $end
$var wire 32 F din [31:0] $end
$upscope $end
$scope module cpu_IMem $end
$var wire 32 G addr [31:0] $end
$var wire 1 H clock $end
$var wire 32 I din [31:0] $end
$var wire 1 J ren $end
$var wire 1 " reset $end
$var wire 1 K wen $end
$var wire 32 L dout [31:0] $end
$upscope $end
$scope module cpu_regs $end
$var wire 1 ! clock $end
$var wire 5 M raA [4:0] $end
$var wire 5 N raB [4:0] $end
$var wire 32 O rdA [31:0] $end
$var wire 32 P rdB [31:0] $end
$var wire 1 " reset $end
$var wire 5 Q wa [4:0] $end
$var wire 32 R wd [31:0] $end
$var wire 1 ( wen $end
$var integer 32 S i [31:0] $end
$upscope $end
$upscope $end
$upscope $end
$scope module cpu_tb $end
$scope module cpu0 $end
$scope module cpu_regs $end
$var reg 32 T \data[0] [31:0] $end
$upscope $end
$upscope $end
$upscope $end
$scope module cpu_tb $end
$scope module cpu0 $end
$scope module cpu_regs $end
$var reg 32 U \data[1] [31:0] $end
$upscope $end
$upscope $end
$upscope $end
$scope module cpu_tb $end
$scope module cpu0 $end
$scope module cpu_regs $end
$var reg 32 V \data[2] [31:0] $end
$upscope $end
$upscope $end
$upscope $end
$scope module cpu_tb $end
$scope module cpu0 $end
$scope module cpu_regs $end
$var reg 32 W \data[3] [31:0] $end
$upscope $end
$upscope $end
$upscope $end
$scope module cpu_tb $end
$scope module cpu0 $end
$scope module cpu_regs $end
$var reg 32 X \data[4] [31:0] $end
$upscope $end
$upscope $end
$upscope $end
$scope module cpu_tb $end
$scope module cpu0 $end
$scope module cpu_regs $end
$var reg 32 Y \data[5] [31:0] $end
$upscope $end
$upscope $end
$upscope $end
$scope module cpu_tb $end
$scope module cpu0 $end
$scope module cpu_regs $end
$var reg 32 Z \data[6] [31:0] $end
$upscope $end
$upscope $end
$upscope $end
$scope module cpu_tb $end
$scope module cpu0 $end
$scope module cpu_regs $end
$var reg 32 [ \data[7] [31:0] $end
$upscope $end
$upscope $end
$upscope $end
$scope module cpu_tb $end
$scope module cpu0 $end
$scope module cpu_regs $end
$var reg 32 \ \data[8] [31:0] $end
$upscope $end
$upscope $end
$upscope $end
$scope module cpu_tb $end
$scope module cpu0 $end
$scope module cpu_regs $end
$var reg 32 ] \data[9] [31:0] $end
$upscope $end
$upscope $end
$upscope $end
$scope module cpu_tb $end
$scope module cpu0 $end
$scope module cpu_regs $end
$var reg 32 ^ \data[10] [31:0] $end
$upscope $end
$upscope $end
$upscope $end
$scope module cpu_tb $end
$scope module cpu0 $end
$scope module cpu_regs $end
$var reg 32 _ \data[11] [31:0] $end
$upscope $end
$upscope $end
$upscope $end
$scope module cpu_tb $end
$scope module cpu0 $end
$scope module cpu_regs $end
$var reg 32 ` \data[12] [31:0] $end
$upscope $end
$upscope $end
$upscope $end
$scope module cpu_tb $end
$scope module cpu0 $end
$scope module cpu_regs $end
$var reg 32 a \data[13] [31:0] $end
$upscope $end
$upscope $end
$upscope $end
$scope module cpu_tb $end
$scope module cpu0 $end
$scope module cpu_regs $end
$var reg 32 b \data[14] [31:0] $end
$upscope $end
$upscope $end
$upscope $end
$scope module cpu_tb $end
$scope module cpu0 $end
$scope module cpu_regs $end
$var reg 32 c \data[15] [31:0] $end
$upscope $end
$upscope $end
$upscope $end
$scope module cpu_tb $end
$scope module cpu0 $end
$scope module cpu_regs $end
$var reg 32 d \data[16] [31:0] $end
$upscope $end
$upscope $end
$upscope $end
$scope module cpu_tb $end
$scope module cpu0 $end
$scope module cpu_regs $end
$var reg 32 e \data[17] [31:0] $end
$upscope $end
$upscope $end
$upscope $end
$scope module cpu_tb $end
$scope module cpu0 $end
$scope module cpu_regs $end
$var reg 32 f \data[18] [31:0] $end
$upscope $end
$upscope $end
$upscope $end
$scope module cpu_tb $end
$scope module cpu0 $end
$scope module cpu_regs $end
$var reg 32 g \data[19] [31:0] $end
$upscope $end
$upscope $end
$upscope $end
$scope module cpu_tb $end
$scope module cpu0 $end
$scope module cpu_regs $end
$var reg 32 h \data[20] [31:0] $end
$upscope $end
$upscope $end
$upscope $end
$scope module cpu_tb $end
$scope module cpu0 $end
$scope module cpu_regs $end
$var reg 32 i \data[21] [31:0] $end
$upscope $end
$upscope $end
$upscope $end
$scope module cpu_tb $end
$scope module cpu0 $end
$scope module cpu_regs $end
$var reg 32 j \data[22] [31:0] $end
$upscope $end
$upscope $end
$upscope $end
$scope module cpu_tb $end
$scope module cpu0 $end
$scope module cpu_regs $end
$var reg 32 k \data[23] [31:0] $end
$upscope $end
$upscope $end
$upscope $end
$scope module cpu_tb $end
$scope module cpu0 $end
$scope module cpu_regs $end
$var reg 32 l \data[24] [31:0] $end
$upscope $end
$upscope $end
$upscope $end
$scope module cpu_tb $end
$scope module cpu0 $end
$scope module cpu_regs $end
$var reg 32 m \data[25] [31:0] $end
$upscope $end
$upscope $end
$upscope $end
$scope module cpu_tb $end
$scope module cpu0 $end
$scope module cpu_regs $end
$var reg 32 n \data[26] [31:0] $end
$upscope $end
$upscope $end
$upscope $end
$scope module cpu_tb $end
$scope module cpu0 $end
$scope module cpu_regs $end
$var reg 32 o \data[27] [31:0] $end
$upscope $end
$upscope $end
$upscope $end
$scope module cpu_tb $end
$scope module cpu0 $end
$scope module cpu_regs $end
$var reg 32 p \data[28] [31:0] $end
$upscope $end
$upscope $end
$upscope $end
$scope module cpu_tb $end
$scope module cpu0 $end
$scope module cpu_regs $end
$var reg 32 q \data[29] [31:0] $end
$upscope $end
$upscope $end
$upscope $end
$scope module cpu_tb $end
$scope module cpu0 $end
$scope module cpu_regs $end
$var reg 32 r \data[30] [31:0] $end
$upscope $end
$upscope $end
$upscope $end
$scope module cpu_tb $end
$scope module cpu0 $end
$scope module cpu_regs $end
$var reg 32 s \data[31] [31:0] $end
$upscope $end
$upscope $end
$upscope $end
$scope module cpu_tb $end
$scope module cpu0 $end
$scope module DATA_MEMORY $end
$var reg 32 t \data[0] [31:0] $end
$upscope $end
$upscope $end
$upscope $end
$scope module cpu_tb $end
$scope module cpu0 $end
$scope module DATA_MEMORY $end
$var reg 32 u \data[1] [31:0] $end
$upscope $end
$upscope $end
$upscope $end
$scope module cpu_tb $end
$scope module cpu0 $end
$scope module DATA_MEMORY $end
$var reg 32 v \data[2] [31:0] $end
$upscope $end
$upscope $end
$upscope $end
$scope module cpu_tb $end
$scope module cpu0 $end
$scope module DATA_MEMORY $end
$var reg 32 w \data[3] [31:0] $end
$upscope $end
$upscope $end
$upscope $end
$scope module cpu_tb $end
$scope module cpu0 $end
$scope module DATA_MEMORY $end
$var reg 32 x \data[4] [31:0] $end
$upscope $end
$upscope $end
$upscope $end
$scope module cpu_tb $end
$scope module cpu0 $end
$scope module DATA_MEMORY $end
$var reg 32 y \data[5] [31:0] $end
$upscope $end
$upscope $end
$upscope $end
$scope module cpu_tb $end
$scope module cpu0 $end
$scope module DATA_MEMORY $end
$var reg 32 z \data[6] [31:0] $end
$upscope $end
$upscope $end
$upscope $end
$scope module cpu_tb $end
$scope module cpu0 $end
$scope module DATA_MEMORY $end
$var reg 32 { \data[7] [31:0] $end
$upscope $end
$upscope $end
$upscope $end
$scope module cpu_tb $end
$scope module cpu0 $end
$scope module DATA_MEMORY $end
$var reg 32 | \data[8] [31:0] $end
$upscope $end
$upscope $end
$upscope $end
$scope module cpu_tb $end
$scope module cpu0 $end
$scope module DATA_MEMORY $end
$var reg 32 } \data[9] [31:0] $end
$upscope $end
$upscope $end
$upscope $end
$scope module cpu_tb $end
$scope module cpu0 $end
$scope module DATA_MEMORY $end
$var reg 32 ~ \data[10] [31:0] $end
$upscope $end
$upscope $end
$upscope $end
$scope module cpu_tb $end
$scope module cpu0 $end
$scope module DATA_MEMORY $end
$var reg 32 !" \data[11] [31:0] $end
$upscope $end
$upscope $end
$upscope $end
$scope module cpu_tb $end
$scope module cpu0 $end
$scope module DATA_MEMORY $end
$var reg 32 "" \data[12] [31:0] $end
$upscope $end
$upscope $end
$upscope $end
$scope module cpu_tb $end
$scope module cpu0 $end
$scope module DATA_MEMORY $end
$var reg 32 #" \data[13] [31:0] $end
$upscope $end
$upscope $end
$upscope $end
$scope module cpu_tb $end
$scope module cpu0 $end
$scope module DATA_MEMORY $end
$var reg 32 $" \data[14] [31:0] $end
$upscope $end
$upscope $end
$upscope $end
$scope module cpu_tb $end
$scope module cpu0 $end
$scope module DATA_MEMORY $end
$var reg 32 %" \data[15] [31:0] $end
$upscope $end
$upscope $end
$upscope $end
$scope module cpu_tb $end
$scope module cpu0 $end
$scope module DATA_MEMORY $end
$var reg 32 &" \data[16] [31:0] $end
$upscope $end
$upscope $end
$upscope $end
$scope module cpu_tb $end
$scope module cpu0 $end
$scope module DATA_MEMORY $end
$var reg 32 '" \data[17] [31:0] $end
$upscope $end
$upscope $end
$upscope $end
$scope module cpu_tb $end
$scope module cpu0 $end
$scope module DATA_MEMORY $end
$var reg 32 (" \data[18] [31:0] $end
$upscope $end
$upscope $end
$upscope $end
$scope module cpu_tb $end
$scope module cpu0 $end
$scope module DATA_MEMORY $end
$var reg 32 )" \data[19] [31:0] $end
$upscope $end
$upscope $end
$upscope $end
$scope module cpu_tb $end
$scope module cpu0 $end
$scope module DATA_MEMORY $end
$var reg 32 *" \data[20] [31:0] $end
$upscope $end
$upscope $end
$upscope $end
$scope module cpu_tb $end
$scope module cpu0 $end
$scope module DATA_MEMORY $end
$var reg 32 +" \data[21] [31:0] $end
$upscope $end
$upscope $end
$upscope $end
$scope module cpu_tb $end
$scope module cpu0 $end
$scope module DATA_MEMORY $end
$var reg 32 ," \data[22] [31:0] $end
$upscope $end
$upscope $end
$upscope $end
$scope module cpu_tb $end
$scope module cpu0 $end
$scope module DATA_MEMORY $end
$var reg 32 -" \data[23] [31:0] $end
$upscope $end
$upscope $end
$upscope $end
$scope module cpu_tb $end
$scope module cpu0 $end
$scope module DATA_MEMORY $end
$var reg 32 ." \data[24] [31:0] $end
$upscope $end
$upscope $end
$upscope $end
$scope module cpu_tb $end
$scope module cpu0 $end
$scope module DATA_MEMORY $end
$var reg 32 /" \data[25] [31:0] $end
$upscope $end
$upscope $end
$upscope $end
$scope module cpu_tb $end
$scope module cpu0 $end
$scope module DATA_MEMORY $end
$var reg 32 0" \data[26] [31:0] $end
$upscope $end
$upscope $end
$upscope $end
$scope module cpu_tb $end
$scope module cpu0 $end
$scope module DATA_MEMORY $end
$var reg 32 1" \data[27] [31:0] $end
$upscope $end
$upscope $end
$upscope $end
$scope module cpu_tb $end
$scope module cpu0 $end
$scope module DATA_MEMORY $end
$var reg 32 2" \data[28] [31:0] $end
$upscope $end
$upscope $end
$upscope $end
$scope module cpu_tb $end
$scope module cpu0 $end
$scope module DATA_MEMORY $end
$var reg 32 3" \data[29] [31:0] $end
$upscope $end
$upscope $end
$upscope $end
$scope module cpu_tb $end
$scope module cpu0 $end
$scope module DATA_MEMORY $end
$var reg 32 4" \data[30] [31:0] $end
$upscope $end
$upscope $end
$upscope $end
$scope module cpu_tb $end
$scope module cpu0 $end
$scope module DATA_MEMORY $end
$var reg 32 5" \data[31] [31:0] $end
$upscope $end
$upscope $end
$upscope $end
$scope module cpu_tb $end
$scope module cpu0 $end
$scope module DATA_MEMORY $end
$var reg 32 6" \data[32] [31:0] $end
$upscope $end
$upscope $end
$upscope $end
$scope module cpu_tb $end
$scope module cpu0 $end
$scope module DATA_MEMORY $end
$var reg 32 7" \data[33] [31:0] $end
$upscope $end
$upscope $end
$upscope $end
$scope module cpu_tb $end
$scope module cpu0 $end
$scope module DATA_MEMORY $end
$var reg 32 8" \data[34] [31:0] $end
$upscope $end
$upscope $end
$upscope $end
$scope module cpu_tb $end
$scope module cpu0 $end
$scope module DATA_MEMORY $end
$var reg 32 9" \data[35] [31:0] $end
$upscope $end
$upscope $end
$upscope $end
$scope module cpu_tb $end
$scope module cpu0 $end
$scope module DATA_MEMORY $end
$var reg 32 :" \data[36] [31:0] $end
$upscope $end
$upscope $end
$upscope $end
$scope module cpu_tb $end
$scope module cpu0 $end
$scope module DATA_MEMORY $end
$var reg 32 ;" \data[37] [31:0] $end
$upscope $end
$upscope $end
$upscope $end
$scope module cpu_tb $end
$scope module cpu0 $end
$scope module DATA_MEMORY $end
$var reg 32 <" \data[38] [31:0] $end
$upscope $end
$upscope $end
$upscope $end
$scope module cpu_tb $end
$scope module cpu0 $end
$scope module DATA_MEMORY $end
$var reg 32 =" \data[39] [31:0] $end
$upscope $end
$upscope $end
$upscope $end
$scope module cpu_tb $end
$scope module cpu0 $end
$scope module DATA_MEMORY $end
$var reg 32 >" \data[40] [31:0] $end
$upscope $end
$upscope $end
$upscope $end
$scope module cpu_tb $end
$scope module cpu0 $end
$scope module DATA_MEMORY $end
$var reg 32 ?" \data[41] [31:0] $end
$upscope $end
$upscope $end
$upscope $end
$scope module cpu_tb $end
$scope module cpu0 $end
$scope module DATA_MEMORY $end
$var reg 32 @" \data[42] [31:0] $end
$upscope $end
$upscope $end
$upscope $end
$scope module cpu_tb $end
$scope module cpu0 $end
$scope module DATA_MEMORY $end
$var reg 32 A" \data[43] [31:0] $end
$upscope $end
$upscope $end
$upscope $end
$scope module cpu_tb $end
$scope module cpu0 $end
$scope module DATA_MEMORY $end
$var reg 32 B" \data[44] [31:0] $end
$upscope $end
$upscope $end
$upscope $end
$scope module cpu_tb $end
$scope module cpu0 $end
$scope module DATA_MEMORY $end
$var reg 32 C" \data[45] [31:0] $end
$upscope $end
$upscope $end
$upscope $end
$scope module cpu_tb $end
$scope module cpu0 $end
$scope module DATA_MEMORY $end
$var reg 32 D" \data[46] [31:0] $end
$upscope $end
$upscope $end
$upscope $end
$scope module cpu_tb $end
$scope module cpu0 $end
$scope module DATA_MEMORY $end
$var reg 32 E" \data[47] [31:0] $end
$upscope $end
$upscope $end
$upscope $end
$scope module cpu_tb $end
$scope module cpu0 $end
$scope module DATA_MEMORY $end
$var reg 32 F" \data[48] [31:0] $end
$upscope $end
$upscope $end
$upscope $end
$scope module cpu_tb $end
$scope module cpu0 $end
$scope module DATA_MEMORY $end
$var reg 32 G" \data[49] [31:0] $end
$upscope $end
$upscope $end
$upscope $end
$scope module cpu_tb $end
$scope module cpu0 $end
$scope module DATA_MEMORY $end
$var reg 32 H" \data[50] [31:0] $end
$upscope $end
$upscope $end
$upscope $end
$scope module cpu_tb $end
$scope module cpu0 $end
$scope module DATA_MEMORY $end
$var reg 32 I" \data[51] [31:0] $end
$upscope $end
$upscope $end
$upscope $end
$scope module cpu_tb $end
$scope module cpu0 $end
$scope module DATA_MEMORY $end
$var reg 32 J" \data[52] [31:0] $end
$upscope $end
$upscope $end
$upscope $end
$scope module cpu_tb $end
$scope module cpu0 $end
$scope module DATA_MEMORY $end
$var reg 32 K" \data[53] [31:0] $end
$upscope $end
$upscope $end
$upscope $end
$scope module cpu_tb $end
$scope module cpu0 $end
$scope module DATA_MEMORY $end
$var reg 32 L" \data[54] [31:0] $end
$upscope $end
$upscope $end
$upscope $end
$scope module cpu_tb $end
$scope module cpu0 $end
$scope module DATA_MEMORY $end
$var reg 32 M" \data[55] [31:0] $end
$upscope $end
$upscope $end
$upscope $end
$scope module cpu_tb $end
$scope module cpu0 $end
$scope module DATA_MEMORY $end
$var reg 32 N" \data[56] [31:0] $end
$upscope $end
$upscope $end
$upscope $end
$scope module cpu_tb $end
$scope module cpu0 $end
$scope module DATA_MEMORY $end
$var reg 32 O" \data[57] [31:0] $end
$upscope $end
$upscope $end
$upscope $end
$scope module cpu_tb $end
$scope module cpu0 $end
$scope module DATA_MEMORY $end
$var reg 32 P" \data[58] [31:0] $end
$upscope $end
$upscope $end
$upscope $end
$scope module cpu_tb $end
$scope module cpu0 $end
$scope module DATA_MEMORY $end
$var reg 32 Q" \data[59] [31:0] $end
$upscope $end
$upscope $end
$upscope $end
$scope module cpu_tb $end
$scope module cpu0 $end
$scope module DATA_MEMORY $end
$var reg 32 R" \data[60] [31:0] $end
$upscope $end
$upscope $end
$upscope $end
$scope module cpu_tb $end
$scope module cpu0 $end
$scope module DATA_MEMORY $end
$var reg 32 S" \data[61] [31:0] $end
$upscope $end
$upscope $end
$upscope $end
$scope module cpu_tb $end
$scope module cpu0 $end
$scope module DATA_MEMORY $end
$var reg 32 T" \data[62] [31:0] $end
$upscope $end
$upscope $end
$upscope $end
$scope module cpu_tb $end
$scope module cpu0 $end
$scope module DATA_MEMORY $end
$var reg 32 U" \data[63] [31:0] $end
$upscope $end
$upscope $end
$upscope $end
$scope module cpu_tb $end
$scope module cpu0 $end
$scope module DATA_MEMORY $end
$var reg 32 V" \data[64] [31:0] $end
$upscope $end
$upscope $end
$upscope $end
$scope module cpu_tb $end
$scope module cpu0 $end
$scope module DATA_MEMORY $end
$var reg 32 W" \data[65] [31:0] $end
$upscope $end
$upscope $end
$upscope $end
$scope module cpu_tb $end
$scope module cpu0 $end
$scope module DATA_MEMORY $end
$var reg 32 X" \data[66] [31:0] $end
$upscope $end
$upscope $end
$upscope $end
$scope module cpu_tb $end
$scope module cpu0 $end
$scope module DATA_MEMORY $end
$var reg 32 Y" \data[67] [31:0] $end
$upscope $end
$upscope $end
$upscope $end
$scope module cpu_tb $end
$scope module cpu0 $end
$scope module DATA_MEMORY $end
$var reg 32 Z" \data[68] [31:0] $end
$upscope $end
$upscope $end
$upscope $end
$scope module cpu_tb $end
$scope module cpu0 $end
$scope module DATA_MEMORY $end
$var reg 32 [" \data[69] [31:0] $end
$upscope $end
$upscope $end
$upscope $end
$scope module cpu_tb $end
$scope module cpu0 $end
$scope module DATA_MEMORY $end
$var reg 32 \" \data[70] [31:0] $end
$upscope $end
$upscope $end
$upscope $end
$scope module cpu_tb $end
$scope module cpu0 $end
$scope module DATA_MEMORY $end
$var reg 32 ]" \data[71] [31:0] $end
$upscope $end
$upscope $end
$upscope $end
$scope module cpu_tb $end
$scope module cpu0 $end
$scope module DATA_MEMORY $end
$var reg 32 ^" \data[72] [31:0] $end
$upscope $end
$upscope $end
$upscope $end
$scope module cpu_tb $end
$scope module cpu0 $end
$scope module DATA_MEMORY $end
$var reg 32 _" \data[73] [31:0] $end
$upscope $end
$upscope $end
$upscope $end
$scope module cpu_tb $end
$scope module cpu0 $end
$scope module DATA_MEMORY $end
$var reg 32 `" \data[74] [31:0] $end
$upscope $end
$upscope $end
$upscope $end
$scope module cpu_tb $end
$scope module cpu0 $end
$scope module DATA_MEMORY $end
$var reg 32 a" \data[75] [31:0] $end
$upscope $end
$upscope $end
$upscope $end
$scope module cpu_tb $end
$scope module cpu0 $end
$scope module DATA_MEMORY $end
$var reg 32 b" \data[76] [31:0] $end
$upscope $end
$upscope $end
$upscope $end
$scope module cpu_tb $end
$scope module cpu0 $end
$scope module DATA_MEMORY $end
$var reg 32 c" \data[77] [31:0] $end
$upscope $end
$upscope $end
$upscope $end
$scope module cpu_tb $end
$scope module cpu0 $end
$scope module DATA_MEMORY $end
$var reg 32 d" \data[78] [31:0] $end
$upscope $end
$upscope $end
$upscope $end
$scope module cpu_tb $end
$scope module cpu0 $end
$scope module DATA_MEMORY $end
$var reg 32 e" \data[79] [31:0] $end
$upscope $end
$upscope $end
$upscope $end
$scope module cpu_tb $end
$scope module cpu0 $end
$scope module DATA_MEMORY $end
$var reg 32 f" \data[80] [31:0] $end
$upscope $end
$upscope $end
$upscope $end
$scope module cpu_tb $end
$scope module cpu0 $end
$scope module DATA_MEMORY $end
$var reg 32 g" \data[81] [31:0] $end
$upscope $end
$upscope $end
$upscope $end
$scope module cpu_tb $end
$scope module cpu0 $end
$scope module DATA_MEMORY $end
$var reg 32 h" \data[82] [31:0] $end
$upscope $end
$upscope $end
$upscope $end
$scope module cpu_tb $end
$scope module cpu0 $end
$scope module DATA_MEMORY $end
$var reg 32 i" \data[83] [31:0] $end
$upscope $end
$upscope $end
$upscope $end
$scope module cpu_tb $end
$scope module cpu0 $end
$scope module DATA_MEMORY $end
$var reg 32 j" \data[84] [31:0] $end
$upscope $end
$upscope $end
$upscope $end
$scope module cpu_tb $end
$scope module cpu0 $end
$scope module DATA_MEMORY $end
$var reg 32 k" \data[85] [31:0] $end
$upscope $end
$upscope $end
$upscope $end
$scope module cpu_tb $end
$scope module cpu0 $end
$scope module DATA_MEMORY $end
$var reg 32 l" \data[86] [31:0] $end
$upscope $end
$upscope $end
$upscope $end
$scope module cpu_tb $end
$scope module cpu0 $end
$scope module DATA_MEMORY $end
$var reg 32 m" \data[87] [31:0] $end
$upscope $end
$upscope $end
$upscope $end
$scope module cpu_tb $end
$scope module cpu0 $end
$scope module DATA_MEMORY $end
$var reg 32 n" \data[88] [31:0] $end
$upscope $end
$upscope $end
$upscope $end
$scope module cpu_tb $end
$scope module cpu0 $end
$scope module DATA_MEMORY $end
$var reg 32 o" \data[89] [31:0] $end
$upscope $end
$upscope $end
$upscope $end
$scope module cpu_tb $end
$scope module cpu0 $end
$scope module DATA_MEMORY $end
$var reg 32 p" \data[90] [31:0] $end
$upscope $end
$upscope $end
$upscope $end
$scope module cpu_tb $end
$scope module cpu0 $end
$scope module DATA_MEMORY $end
$var reg 32 q" \data[91] [31:0] $end
$upscope $end
$upscope $end
$upscope $end
$scope module cpu_tb $end
$scope module cpu0 $end
$scope module DATA_MEMORY $end
$var reg 32 r" \data[92] [31:0] $end
$upscope $end
$upscope $end
$upscope $end
$scope module cpu_tb $end
$scope module cpu0 $end
$scope module DATA_MEMORY $end
$var reg 32 s" \data[93] [31:0] $end
$upscope $end
$upscope $end
$upscope $end
$scope module cpu_tb $end
$scope module cpu0 $end
$scope module DATA_MEMORY $end
$var reg 32 t" \data[94] [31:0] $end
$upscope $end
$upscope $end
$upscope $end
$scope module cpu_tb $end
$scope module cpu0 $end
$scope module DATA_MEMORY $end
$var reg 32 u" \data[95] [31:0] $end
$upscope $end
$upscope $end
$upscope $end
$scope module cpu_tb $end
$scope module cpu0 $end
$scope module DATA_MEMORY $end
$var reg 32 v" \data[96] [31:0] $end
$upscope $end
$upscope $end
$upscope $end
$scope module cpu_tb $end
$scope module cpu0 $end
$scope module DATA_MEMORY $end
$var reg 32 w" \data[97] [31:0] $end
$upscope $end
$upscope $end
$upscope $end
$scope module cpu_tb $end
$scope module cpu0 $end
$scope module DATA_MEMORY $end
$var reg 32 x" \data[98] [31:0] $end
$upscope $end
$upscope $end
$upscope $end
$scope module cpu_tb $end
$scope module cpu0 $end
$scope module DATA_MEMORY $end
$var reg 32 y" \data[99] [31:0] $end
$upscope $end
$upscope $end
$upscope $end
$enddefinitions $end
$comment Show the parameter values. $end
$dumpall
$end
#0
$dumpvars
bx y"
bx x"
bx w"
bx v"
bx u"
bx t"
bx s"
bx r"
bx q"
bx p"
bx o"
bx n"
bx m"
bx l"
bx k"
bx j"
bx i"
bx h"
bx g"
bx f"
bx e"
bx d"
bx c"
bx b"
bx a"
bx `"
bx _"
bx ^"
bx ]"
bx \"
bx ["
bx Z"
bx Y"
bx X"
bx W"
bx V"
bx U"
bx T"
bx S"
bx R"
bx Q"
bx P"
bx O"
bx N"
bx M"
bx L"
bx K"
bx J"
bx I"
bx H"
bx G"
bx F"
bx E"
bx D"
bx C"
bx B"
bx A"
bx @"
bx ?"
bx >"
bx ="
bx <"
bx ;"
bx :"
bx 9"
bx 8"
bx 7"
bx 6"
bx 5"
bx 4"
bx 3"
bx 2"
bx 1"
bx 0"
bx /"
bx ."
bx -"
bx ,"
bx +"
bx *"
bx )"
bx ("
bx '"
bx &"
bx %"
bx $"
bx #"
bx ""
bx !"
bx ~
bx }
bx |
bx {
bx z
bx y
bx x
bx w
bx v
bx u
bx t
b0 s
b0 r
b0 q
b0 p
b0 o
b0 n
b0 m
b0 l
b0 k
b0 j
b0 i
b0 h
b0 g
b0 f
b0 e
b0 d
b0 c
b0 b
b0 a
b0 `
b0 _
b0 ^
b0 ]
b0 \
b0 [
b0 Z
b0 Y
b0 X
b0 W
b0 V
b0 U
b0 T
b100000 S
bx R
bx Q
bx P
bx O
bx N
bx M
bx L
0K
1J
b0 I
1H
b11111111111111111111111111111100 G
bx F
bx E
bx D
xC
bx B
bx A
bx @
bx ?
bx >
bx =
bx <
bx ;
bx :
b11111111111111111111111111111100 9
bx 8
x7
bx 6
bx 5
bx 4
bx 3
x2
bx 1
bx 0
bx /
x.
x-
x,
x+
b0 *
x)
x(
bx '
bx &
bx %
x$
b1100100 #
0"
0!
$end
#5000
1!
#10000
b0 s
b0 r
b0 q
b0 p
b0 o
b0 n
b0 m
b0 l
b0 k
b0 j
b0 i
b0 h
b0 g
b0 f
b0 e
b0 d
b0 c
b0 b
b0 a
b0 `
b0 _
b0 ^
b0 ]
b0 \
b0 [
b0 Z
b0 Y
b0 X
b0 W
b0 V
b0 U
b0 T
b100000 S
0!
#15000
1!
#20000
b0 s
b0 r
b0 q
b0 p
b0 o
b0 n
b0 m
b0 l
b0 k
b0 j
b0 i
b0 h
b0 g
b0 f
b0 e
b0 d
b0 c
b0 b
b0 a
b0 `
b0 _
b0 ^
b0 ]
b0 \
b0 [
b0 Z
b0 Y
b0 X
b0 W
b0 V
b0 U
b0 T
b100000 S
0!
#25000
1!
#30000
b0 s
b0 r
b0 q
b0 p
b0 o
b0 n
b0 m
b0 l
b0 k
b0 j
b0 i
b0 h
b0 g
b0 f
b0 e
b0 d
b0 c
b0 b
b0 a
b0 `
b0 _
b0 ^
b0 ]
b0 \
b0 [
b0 Z
b0 Y
b0 X
b0 W
b0 V
b0 U
b0 T
b100000 S
0!
#35000
1!
#40000
b0 s
b0 r
b0 q
b0 p
b0 o
b0 n
b0 m
b0 l
b0 k
b0 j
b0 i
b0 h
b0 g
b0 f
b0 e
b0 d
b0 c
b0 b
b0 a
b0 `
b0 _
b0 ^
b0 ]
b0 \
b0 [
b0 Z
b0 Y
b0 X
b0 W
b0 V
b0 U
b0 T
b100000 S
0!
#45000
1!
#47500
b11111 s
b11110 r
b11101 q
b11100 p
b11011 o
b11010 n
b11001 m
b11000 l
b10111 k
b10110 j
b10101 i
b10100 h
b10011 g
b10010 f
b10001 e
b10000 d
b1111 c
b1110 b
b1101 a
b1100 `
b1011 _
b1010 ^
b1001 ]
b1000 \
b111 [
b110 Z
b101 Y
b100 X
b11 W
b10 V
b1 U
b0 T
b100000 #
1"
#50000
0!
#55000
b10010 &
b10010 R
0$
b10010 5
b10010 =
b10010 D
b10 8
b10 ;
b10 @
b1001 3
b1001 :
b1010 '
b1010 Q
b10 6
b10 ?
b10 B
02
1(
07
0-
0,
0.
1)
0+
b100000 >
b101000000100000 1
b1001 %
b1001 F
b1001 P
b1001 N
b1001 4
b1001 <
b1001 O
b1001 M
b0 A
b1001010010101000000100000 0
b1001010010101000000100000 L
b100 *
b0 9
b0 G
1!
#60000
b10010 ^
0!
#65000
b1100 &
b1100 R
b100 3
b100 :
b1100 5
b1100 =
b1100 D
b1001 '
b1001 Q
b100100000100000 1
b100 %
b100 F
b100 P
b100 N
b1000 4
b1000 <
b1000 O
b1000 M
b1000001000100100000100000 0
b1000001000100100000100000 L
b1000 *
b100 9
b100 G
1!
#70000
b1100 ]
0!
#75000
bx &
bx R
b101 3
b101 :
b10000 5
b10000 =
b10000 D
b0x00x '
b0x00x Q
b0 6
b0 ?
b0 B
1,
17
x-
x)
0(
b101 >
b101 1
b1100 %
b1100 F
b1100 P
b1001 N
b1011 4
b1011 <
b1011 O
b1011 M
b101011 A
b10101101011010010000000000000101 0
b10101101011010010000000000000101 L
b1100 *
b1000 9
b1000 G
1!
#80000
b1100 x
0!
